solid duckiemod
facet normal 3.499413470394397e-06 0.9999999998132065 1.900897988213274e-05
  outer loop
    vertex 32.57721395339298 55.00200228386556 -0.001509119852038889
    vertex 43.51914061826702 55.00499105287414 30.989441530940045
    vertex 43.51894281201221 55.00431497120377 -0.0018568658467879354
  endloop
endfacet
facet normal 3.499413470394397e-06 0.9999999998132065 1.900897988213274e-05
  outer loop
    vertex 43.51914061826702 55.00499105287414 30.989441530940045
    vertex 32.57721395339298 55.00200228386556 -0.001509119852038889
    vertex 31.87339521727544 55.00027387277169 3.5375114243323154
  endloop
endfacet
facet normal 3.499413470394397e-06 0.9999999998132065 1.900897988213274e-05
  outer loop
    vertex 43.51914061826702 55.00499105287414 30.989441530940045
    vertex 31.87339521727544 55.00027387277169 3.5375114243323154
    vertex 30.486018763486715 55.00031599645311 7.6250875328617065
  endloop
endfacet
facet normal 3.499413470394397e-06 0.9999999998132065 1.900897988213274e-05
  outer loop
    vertex 43.51914061826702 55.00499105287414 30.989441530940045
    vertex 30.486018763486715 55.00031599645311 7.6250875328617065
    vertex 28.576975762702546 55.00035589365384 11.496604895458347
  endloop
endfacet
facet normal 3.499413470394397e-06 0.9999999998132065 1.900897988213274e-05
  outer loop
    vertex 43.51914061826702 55.00499105287414 30.989441530940045
    vertex 28.576975762702546 55.00035589365384 11.496604895458347
    vertex 26.178930469953052 55.00039288172167 15.085820776660803
  endloop
endfacet
facet normal 3.499413470394397e-06 0.9999999998132065 1.900897988213274e-05
  outer loop
    vertex 43.51914061826702 55.00499105287414 30.989441530940045
    vertex 26.178930469953052 55.00039288172167 15.085820776660803
    vertex 23.332914105060915 55.00042632778053 18.331322697623083
  endloop
endfacet
facet normal 3.499413470394397e-06 0.9999999998132065 1.900897988213274e-05
  outer loop
    vertex 43.51914061826702 55.00499105287414 30.989441530940045
    vertex 23.332914105060915 55.00042632778053 18.331322697623083
    vertex 20.087622797094294 55.00045565955907 21.177579220654348
  endloop
endfacet
facet normal 3.499413470394397e-06 0.9999999998132065 1.900897988213274e-05
  outer loop
    vertex 43.51914061826702 55.00499105287414 30.989441530940045
    vertex 20.087622797094294 55.00045565955907 21.177579220654348
    vertex 16.49858438009722 55.00048037518245 23.57589010751416
  endloop
endfacet
facet normal 3.499413470394397e-06 0.9999999998132065 1.900897988213274e-05
  outer loop
    vertex 43.51914061826702 55.00499105287414 30.989441530940045
    vertex 16.49858438009722 55.00048037518245 23.57589010751416
    vertex 12.627208296453945 55.00050005175948 25.485219593990948
  endloop
endfacet
facet normal 3.499413470394397e-06 0.9999999998132065 1.900897988213274e-05
  outer loop
    vertex 43.51914061826702 55.00499105287414 30.989441530940045
    vertex 12.627208296453945 55.00050005175948 25.485219593990948
    vertex 8.539734864303837 55.00051435261846 26.872898523204963
  endloop
endfacet
facet normal 3.499413470394397e-06 0.9999999998132065 1.900897988213274e-05
  outer loop
    vertex 43.51914061826702 55.00499105287414 30.989441530940045
    vertex 8.539734864303837 55.00051435261846 26.872898523204963
    vertex 4.306101887332712 55.00052303306776 27.715183323940053
  endloop
endfacet
facet normal 3.499413470394397e-06 0.9999999998132065 1.900897988213274e-05
  outer loop
    vertex 43.51914061826702 55.00499105287414 30.989441530940045
    vertex 4.306101887332712 55.00052303306776 27.715183323940053
    vertex -0.00125200043888527 54.99867659419908 27.997662288788217
  endloop
endfacet
facet normal 3.499413470394397e-06 0.9999999998132065 1.900897988213274e-05
  outer loop
    vertex 43.51914061826702 55.00499105287414 30.989441530940045
    vertex -0.00125200043888527 54.99867659419908 27.997662288788217
    vertex -55.10581544450621 55.00499109654572 30.992575896427788
  endloop
endfacet
facet normal 3.499413470394397e-06 0.9999999998132065 1.900897988213274e-05
  outer loop
    vertex -55.10581544450621 55.00499109654572 30.992575896427788
    vertex -0.00125200043888527 54.99867659419908 27.997662288788217
    vertex -4.308626779766349 55.000523037345715 27.71550206749493
  endloop
endfacet
facet normal 3.499413470394397e-06 0.9999999998132065 1.900897988213274e-05
  outer loop
    vertex -55.10581544450621 55.00499109654572 30.992575896427788
    vertex -4.308626779766349 55.000523037345715 27.71550206749493
    vertex -8.54232207394617 55.00051436110122 26.873530556524116
  endloop
endfacet
facet normal 3.499413470394397e-06 0.9999999998132065 1.900897988213274e-05
  outer loop
    vertex -55.10581544450621 55.00499109654572 30.992575896427788
    vertex -8.54232207394617 55.00051436110122 26.873530556524116
    vertex -12.629898182692626 55.00050006430188 25.48615410280905
  endloop
endfacet
facet normal 3.499413470394397e-06 0.9999999998132065 1.900897988213274e-05
  outer loop
    vertex -55.10581544450621 55.00499109654572 30.992575896427788
    vertex -12.629898182692626 55.00050006430188 25.48615410280905
    vertex -16.501415545494837 55.0004803915699 23.577111102126242
  endloop
endfacet
facet normal 3.499413470394397e-06 0.9999999998132065 1.900897988213274e-05
  outer loop
    vertex -55.10581544450621 55.00499109654572 30.992575896427788
    vertex -16.501415545494837 55.0004803915699 23.577111102126242
    vertex -20.09063142688788 55.00045567951119 21.179065809504074
  endloop
endfacet
facet normal 3.499413470394397e-06 0.9999999998132065 1.900897988213274e-05
  outer loop
    vertex -55.10581544450621 55.00499109654572 30.992575896427788
    vertex -20.09063142688788 55.00045567951119 21.179065809504074
    vertex -23.336133348022475 55.0004263509559 18.333049444763066
  endloop
endfacet
facet normal 3.499413470394397e-06 0.9999999998132065 1.900897988213274e-05
  outer loop
    vertex -55.10581544450621 55.00499109654572 30.992575896427788
    vertex -23.336133348022475 55.0004263509559 18.333049444763066
    vertex -26.18238987120488 55.00039290772377 15.087758136968759
  endloop
endfacet
facet normal 3.499413470394397e-06 0.9999999998132065 1.900897988213274e-05
  outer loop
    vertex -55.10581544450621 55.00499109654572 30.992575896427788
    vertex -26.18238987120488 55.00039290772377 15.087758136968759
    vertex -28.580700758192073 55.000355922037755 11.498719720162244
  endloop
endfacet
facet normal 3.499413470394397e-06 0.9999999998132065 1.900897988213274e-05
  outer loop
    vertex -55.10581544450621 55.00499109654572 30.992575896427788
    vertex -28.580700758192073 55.000355922037755 11.498719720162244
    vertex -30.49003024477022 55.000316026733195 7.627343636724528
  endloop
endfacet
facet normal 3.499413470394397e-06 0.9999999998132065 1.900897988213274e-05
  outer loop
    vertex -55.10581544450621 55.00499109654572 30.992575896427788
    vertex -30.49003024477022 55.000316026733195 7.627343636724528
    vertex -31.877709174057927 55.00027390442983 3.5398702047914554
  endloop
endfacet
facet normal 3.499413470394397e-06 0.9999999998132065 1.900897988213274e-05
  outer loop
    vertex -55.10581544450621 55.00499109654572 30.992575896427788
    vertex -31.877709174057927 55.00027390442983 3.5398702047914554
    vertex -32.58185748393197 55.00183088675746 0.0005616554861319858
  endloop
endfacet
facet normal 3.499413470394397e-06 0.9999999998132065 1.900897988213274e-05
  outer loop
    vertex -55.10581544450621 55.00499109654572 30.992575896427788
    vertex -32.58185748393197 55.00183088675746 0.0005616554861319858
    vertex -55.10601325076099 55.00431501487535 0.0012774996409546445
  endloop
endfacet
facet normal -0.06544003999639106 -2.8225707580893226e-05 -0.9978565028943693
  outer loop
    vertex 0.003289158255194202 -41.60115719156609 27.99229498441646
    vertex 4.311296383142858 -54.99926106240051 27.71015221807404
    vertex 0.003942590692952663 -55.00132315904921 27.992631173558188
  endloop
endfacet
facet normal -0.06544003999639106 -2.8225707580893226e-05 -0.9978565028943693
  outer loop
    vertex 4.311296383142858 -54.99926106240051 27.71015221807404
    vertex 0.003289158255194202 -41.60115719156609 27.99229498441646
    vertex 4.3106429507051 -41.599095094917395 27.709816028932316
  endloop
endfacet
facet normal 0.06536620567681067 -2.1847322626684506e-05 -0.9978613424109141
  outer loop
    vertex -4.3034322735374015 -54.99968341322343 27.710470942311833
    vertex 0.003289158255194202 -41.60115719156609 27.99229498441646
    vertex 0.003942590692952663 -55.00132315904921 27.992631173558188
  endloop
endfacet
facet normal 0.06536620567681067 -2.1847322626684506e-05 -0.9978613424109141
  outer loop
    vertex 0.003289158255194202 -41.60115719156609 27.99229498441646
    vertex -4.3034322735374015 -54.99968341322343 27.710470942311833
    vertex -4.30408570597516 -41.599517445740325 27.710134753170106
  endloop
endfacet
facet normal 0.19505403614076408 -1.5095123003375138e-05 -0.9807924972986564
  outer loop
    vertex -8.537780992715314 -41.59973380154654 26.868163232713613
    vertex -4.3034322735374015 -54.99968341322343 27.710470942311833
    vertex -8.537127560277533 -54.99989976902965 26.868499421855336
  endloop
endfacet
facet normal 0.19505403614076408 -1.5095123003375138e-05 -0.9807924972986564
  outer loop
    vertex -4.3034322735374015 -54.99968341322343 27.710470942311833
    vertex -8.537780992715314 -41.59973380154654 26.868163232713613
    vertex -4.30408570597516 -41.599517445740325 27.710134753170106
  endloop
endfacet
facet normal 0.3214044316975915 -8.084641956212265e-06 -0.9469420210444709
  outer loop
    vertex -12.625357092696646 -41.59994868780425 25.480786769845473
    vertex -8.537127560277533 -54.99989976902965 26.868499421855336
    vertex -12.624703660258866 -55.00011465528737 25.4811229589872
  endloop
endfacet
facet normal 0.3214044316975915 -8.084641956212265e-06 -0.9469420210444709
  outer loop
    vertex -8.537127560277533 -54.99989976902965 26.868499421855336
    vertex -12.625357092696646 -41.59994868780425 25.480786769845473
    vertex -8.537780992715314 -41.59973380154654 26.868163232713613
  endloop
endfacet
facet normal 0.44225550832086763 -9.358304442328234e-07 -0.8968891042704084
  outer loop
    vertex -16.49687444555832 -41.60015842775 23.571743760498805
    vertex -12.624703660258866 -55.00011465528737 25.4811229589872
    vertex -16.496221013120536 -55.000324395233115 23.572079949640546
  endloop
endfacet
facet normal 0.44225550832086763 -9.358304442328234e-07 -0.8968891042704084
  outer loop
    vertex -12.624703660258866 -55.00011465528737 25.4811229589872
    vertex -16.49687444555832 -41.60015842775 23.571743760498805
    vertex -12.625357092696646 -41.59994868780425 25.480786769845473
  endloop
endfacet
facet normal 0.6593179984842027 1.3287237413683378e-05 -0.7518642009686551
  outer loop
    vertex -23.331592225376056 -41.6005482633298 18.327682087857646
    vertex -20.085436883567677 -55.000525400158295 21.174034648991977
    vertex -23.330938792938273 -55.000714230812896 18.328018276999384
  endloop
endfacet
facet normal 0.6593179984842027 1.3287237413683378e-05 -0.7518642009686551
  outer loop
    vertex -20.085436883567677 -55.000525400158295 21.174034648991977
    vertex -23.331592225376056 -41.6005482633298 18.327682087857646
    vertex -20.086090316005446 -41.60035943267519 21.17369845985024
  endloop
endfacet
facet normal 0.7518154126360262 2.0118133125180543e-05 -0.6593736307422238
  outer loop
    vertex -23.331592225376056 -41.6005482633298 18.327682087857646
    vertex -26.177195303739968 -55.000887656252075 15.082726962852336
    vertex -26.177848736177737 -41.600721688768964 15.082390773710598
  endloop
endfacet
facet normal 0.7518154126360262 2.0118133125180543e-05 -0.6593736307422238
  outer loop
    vertex -26.177195303739968 -55.000887656252075 15.082726962852336
    vertex -23.331592225376056 -41.6005482633298 18.327682087857646
    vertex -23.330938792938273 -55.000714230812896 18.328018276999384
  endloop
endfacet
facet normal 0.831449056637165 2.660480200130905e-05 -0.5556009948779368
  outer loop
    vertex -26.177848736177737 -41.600721688768964 15.082390773710598
    vertex -28.57550617794141 -55.00104270911848 11.493688540700674
    vertex -28.57615961037919 -41.60087674163536 11.493352351558938
  endloop
endfacet
facet normal 0.831449056637165 2.660480200130905e-05 -0.5556009948779368
  outer loop
    vertex -28.57550617794141 -55.00104270911848 11.493688540700674
    vertex -26.177848736177737 -41.600721688768964 15.082390773710598
    vertex -26.177195303739968 -55.000887656252075 15.082726962852336
  endloop
endfacet
facet normal 0.8968563767588441 3.263625533906811e-05 -0.4423218719460671
  outer loop
    vertex -28.57615961037919 -41.60087674163536 11.493352351558938
    vertex -30.484835651547698 -55.00117673641456 7.622312453016832
    vertex -30.48548908398549 -41.60101076893145 7.621976263875096
  endloop
endfacet
facet normal 0.8968563767588441 3.263625533906811e-05 -0.4423218719460671
  outer loop
    vertex -30.484835651547698 -55.00117673641456 7.622312453016832
    vertex -28.57615961037919 -41.60087674163536 11.493352351558938
    vertex -28.57550617794141 -55.00104270911848 11.493688540700674
  endloop
endfacet
facet normal 0.5555394705839111 6.2289933863035905e-06 -0.8314901662584757
  outer loop
    vertex -20.086090316005446 -41.60035943267519 21.17369845985024
    vertex -16.496221013120536 -55.000324395233115 23.572079949640546
    vertex -20.085436883567677 -55.000525400158295 21.174034648991977
  endloop
endfacet
facet normal 0.5555394705839111 6.2289933863035905e-06 -0.8314901662584757
  outer loop
    vertex -16.496221013120536 -55.000324395233115 23.572079949640546
    vertex -20.086090316005446 -41.60035943267519 21.17369845985024
    vertex -16.49687444555832 -41.60015842775 23.571743760498805
  endloop
endfacet
facet normal 0.9469182356180375 3.810929329957209e-05 -0.32147449914682913
  outer loop
    vertex -30.48548908398549 -41.60101076893145 7.621976263875096
    vertex -31.87251456789928 -55.00128744489614 3.534839018009314
    vertex -31.873168000337074 -41.601121477413024 3.5345028288675797
  endloop
endfacet
facet normal 0.9469182356180375 3.810929329957209e-05 -0.32147449914682913
  outer loop
    vertex -31.87251456789928 -55.00128744489614 3.534839018009314
    vertex -30.48548908398549 -41.60101076893145 7.621976263875096
    vertex -30.484835651547698 -55.00117673641456 7.622312453016832
  endloop
endfacet
facet normal -0.9469420219523507 1.1389922367536135e-05 -0.3214044289226018
  outer loop
    vertex 30.486024996627023 41.599020745310824 7.624594253613672
    vertex 31.87339521727544 55.00027387277169 3.5375114243323154
    vertex 31.873401450415745 41.5989786216294 3.5370181450842786
  endloop
endfacet
facet normal -0.9469420219523507 1.1389922367536135e-05 -0.3214044289226018
  outer loop
    vertex 31.87339521727544 55.00027387277169 3.5375114243323154
    vertex 30.486024996627023 41.599020745310824 7.624594253613672
    vertex 30.486018763486715 55.00031599645311 7.6250875328617065
  endloop
endfacet
facet normal -0.8968891053411625 1.586152858841908e-05 -0.442255505865943
  outer loop
    vertex 28.57698199584284 41.59906064251154 11.496111616210312
    vertex 30.486018763486715 55.00031599645311 7.6250875328617065
    vertex 30.486024996627023 41.599020745310824 7.624594253613672
  endloop
endfacet
facet normal -0.8968891053411625 1.586152858841908e-05 -0.442255505865943
  outer loop
    vertex 30.486018763486715 55.00031599645311 7.6250875328617065
    vertex 28.57698199584284 41.59906064251154 11.496111616210312
    vertex 28.576975762702546 55.00035589365384 11.496604895458347
  endloop
endfacet
facet normal 4.876291976537855e-05 -0.999999998550393 2.2834000575944842e-05
  outer loop
    vertex 31.87793631389463 -41.597995977766686 3.5321441913595404
    vertex -32.57586598688949 -41.60216996790876 0.0024841019005784866
    vertex 32.58049705114762 -41.59907270042973 -0.0005500790385996255
  endloop
endfacet
facet normal 4.876291976537855e-05 -0.999999998550393 2.2834000575944842e-05
  outer loop
    vertex -32.57586598688949 -41.60216996790876 0.0024841019005784866
    vertex 31.87793631389463 -41.597995977766686 3.5321441913595404
    vertex 30.490559850526 -41.59802132080455 7.619720296740785
  endloop
endfacet
facet normal 4.876291976537855e-05 -0.999999998550393 2.2834000575944842e-05
  outer loop
    vertex -32.57586598688949 -41.60216996790876 0.0024841019005784866
    vertex 30.490559850526 -41.59802132080455 7.619720296740785
    vertex 28.58151684138794 -41.59807449531419 11.491237655021498
  endloop
endfacet
facet normal 4.876291976537855e-05 -0.999999998550393 2.2834000575944842e-05
  outer loop
    vertex -32.57586598688949 -41.60216996790876 0.0024841019005784866
    vertex 28.58151684138794 -41.59807449531419 11.491237655021498
    vertex 26.183471541653528 -41.59815459146499 15.08045353081409
  endloop
endfacet
facet normal 4.876291976537855e-05 -0.999999998550393 2.2834000575944842e-05
  outer loop
    vertex -32.57586598688949 -41.60216996790876 0.0024841019005784866
    vertex 26.183471541653528 -41.59815459146499 15.08045353081409
    vertex 23.33745517126499 -41.59826023878962 18.32595544536511
  endloop
endfacet
facet normal 4.876291976537855e-05 -0.999999998550393 2.2834000575944842e-05
  outer loop
    vertex -32.57586598688949 -41.60216996790876 0.0024841019005784866
    vertex 23.33745517126499 -41.59826023878962 18.32595544536511
    vertex 20.092163859384467 -41.59838962963308 21.172211961093474
  endloop
endfacet
facet normal 4.876291976537855e-05 -0.999999998550393 2.2834000575944842e-05
  outer loop
    vertex -32.57586598688949 -41.60216996790876 0.0024841019005784866
    vertex 20.092163859384467 -41.59838962963308 21.172211961093474
    vertex 16.50312544012299 -41.59854055008214 23.570522839883655
  endloop
endfacet
facet normal 4.876291976537855e-05 -0.999999998550393 2.2834000575944842e-05
  outer loop
    vertex -32.57586598688949 -41.60216996790876 0.0024841019005784866
    vertex 16.50312544012299 -41.59854055008214 23.570522839883655
    vertex 12.631749355903553 -41.59871041784608 25.47985231766217
  endloop
endfacet
facet normal 4.876291976537855e-05 -0.999999998550393 2.2834000575944842e-05
  outer loop
    vertex -32.57586598688949 -41.60216996790876 0.0024841019005784866
    vertex 12.631749355903553 -41.59871041784608 25.47985231766217
    vertex 8.544275924875377 -41.59889632644036 26.867531237698092
  endloop
endfacet
facet normal 4.876291976537855e-05 -0.999999998550393 2.2834000575944842e-05
  outer loop
    vertex -32.57586598688949 -41.60216996790876 0.0024841019005784866
    vertex 8.544275924875377 -41.59889632644036 26.867531237698092
    vertex 4.3106429507051 -41.599095094917395 27.709816028932316
  endloop
endfacet
facet normal 4.876291976537855e-05 -0.999999998550393 2.2834000575944842e-05
  outer loop
    vertex -32.57586598688949 -41.60216996790876 0.0024841019005784866
    vertex 4.3106429507051 -41.599095094917395 27.709816028932316
    vertex 0.003289158255194202 -41.60115719156609 27.99229498441646
  endloop
endfacet
facet normal 4.876291976537855e-05 -0.999999998550393 2.2834000575944842e-05
  outer loop
    vertex -32.57586598688949 -41.60216996790876 0.0024841019005784866
    vertex 0.003289158255194202 -41.60115719156609 27.99229498441646
    vertex -4.30408570597516 -41.599517445740325 27.710134753170106
  endloop
endfacet
facet normal 4.876291976537855e-05 -0.999999998550393 2.2834000575944842e-05
  outer loop
    vertex -32.57586598688949 -41.60216996790876 0.0024841019005784866
    vertex -4.30408570597516 -41.599517445740325 27.710134753170106
    vertex -8.537780992715314 -41.59973380154654 26.868163232713613
  endloop
endfacet
facet normal 4.876291976537855e-05 -0.999999998550393 2.2834000575944842e-05
  outer loop
    vertex -32.57586598688949 -41.60216996790876 0.0024841019005784866
    vertex -8.537780992715314 -41.59973380154654 26.868163232713613
    vertex -12.625357092696646 -41.59994868780425 25.480786769845473
  endloop
endfacet
facet normal 4.876291976537855e-05 -0.999999998550393 2.2834000575944842e-05
  outer loop
    vertex -32.57586598688949 -41.60216996790876 0.0024841019005784866
    vertex -12.625357092696646 -41.59994868780425 25.480786769845473
    vertex -16.49687444555832 -41.60015842775 23.571743760498805
  endloop
endfacet
facet normal 4.876291976537855e-05 -0.999999998550393 2.2834000575944842e-05
  outer loop
    vertex -32.57586598688949 -41.60216996790876 0.0024841019005784866
    vertex -16.49687444555832 -41.60015842775 23.571743760498805
    vertex -20.086090316005446 -41.60035943267519 21.17369845985024
  endloop
endfacet
facet normal 4.876291976537855e-05 -0.999999998550393 2.2834000575944842e-05
  outer loop
    vertex -32.57586598688949 -41.60216996790876 0.0024841019005784866
    vertex -20.086090316005446 -41.60035943267519 21.17369845985024
    vertex -23.331592225376056 -41.6005482633298 18.327682087857646
  endloop
endfacet
facet normal 4.876291976537855e-05 -0.999999998550393 2.2834000575944842e-05
  outer loop
    vertex -32.57586598688949 -41.60216996790876 0.0024841019005784866
    vertex -23.331592225376056 -41.6005482633298 18.327682087857646
    vertex -26.177848736177737 -41.600721688768964 15.082390773710598
  endloop
endfacet
facet normal 4.876291976537855e-05 -0.999999998550393 2.2834000575944842e-05
  outer loop
    vertex -32.57586598688949 -41.60216996790876 0.0024841019005784866
    vertex -26.177848736177737 -41.600721688768964 15.082390773710598
    vertex -28.57615961037919 -41.60087674163536 11.493352351558938
  endloop
endfacet
facet normal 4.876291976537855e-05 -0.999999998550393 2.2834000575944842e-05
  outer loop
    vertex -32.57586598688949 -41.60216996790876 0.0024841019005784866
    vertex -28.57615961037919 -41.60087674163536 11.493352351558938
    vertex -30.48548908398549 -41.60101076893145 7.621976263875096
  endloop
endfacet
facet normal 4.876291976537855e-05 -0.999999998550393 2.2834000575944842e-05
  outer loop
    vertex -32.57586598688949 -41.60216996790876 0.0024841019005784866
    vertex -30.48548908398549 -41.60101076893145 7.621976263875096
    vertex -31.873168000337074 -41.601121477413024 3.5345028288675797
  endloop
endfacet
facet normal 4.709562989116848e-06 2.329370723791461e-05 0.9999999997176117
  outer loop
    vertex 43.51914060558387 -54.999371646347996 30.990575154146185
    vertex -112.7956527809941 -45.95344597493154 30.99201465318947
    vertex -55.100674048933456 -55.004165210574996 30.99516763992562
  endloop
endfacet
facet normal 4.709562989116848e-06 2.329370723791461e-05 0.9999999997176117
  outer loop
    vertex -112.7956527809941 -45.95344597493154 30.99201465318947
    vertex 43.51914060558387 -54.999371646347996 30.990575154146185
    vertex 43.51914061826702 55.00499105287414 30.989441530940045
  endloop
endfacet
facet normal 4.709562989116848e-06 2.329370723791461e-05 0.9999999997176117
  outer loop
    vertex -112.7956527809941 -45.95344597493154 30.99201465318947
    vertex 43.51914061826702 55.00499105287414 30.989441530940045
    vertex -112.79565250800259 45.49034532913581 30.98818518513614
  endloop
endfacet
facet normal 4.709562989116848e-06 2.329370723791461e-05 0.9999999997176117
  outer loop
    vertex -112.79565250800259 45.49034532913581 30.98818518513614
    vertex 43.51914061826702 55.00499105287414 30.989441530940045
    vertex -55.10581544450621 55.00499109654572 30.992575896427788
  endloop
endfacet
facet normal -1.0737698007990292e-05 -2.104295479903215e-05 -0.999999999720948
  outer loop
    vertex -112.79585058724885 -45.95412205660192 0.0007162564026396928
    vertex -32.57521255445172 -55.00233593539187 0.0028202910423132657
    vertex -55.10087185518827 -55.004841292245366 0.003869243138786098
  endloop
endfacet
facet normal -1.0737698007990292e-05 -2.104295479903215e-05 -0.999999999720948
  outer loop
    vertex -32.57521255445172 -55.00233593539187 0.0028202910423132657
    vertex -112.79585058724885 -45.95412205660192 0.0007162564026396928
    vertex -32.57586598688949 -41.60216996790876 0.0024841019005784866
  endloop
endfacet
facet normal -1.0737698007990292e-05 -2.104295479903215e-05 -0.999999999720948
  outer loop
    vertex -32.57586598688949 -41.60216996790876 0.0024841019005784866
    vertex -112.79585058724885 -45.95412205660192 0.0007162564026396928
    vertex -112.79585031425735 45.489669247465436 -0.003113211650691936
  endloop
endfacet
facet normal -1.0737698007990292e-05 -2.104295479903215e-05 -0.999999999720948
  outer loop
    vertex -32.57586598688949 -41.60216996790876 0.0024841019005784866
    vertex -112.79585031425735 45.489669247465436 -0.003113211650691936
    vertex 32.58049705114762 -41.59907270042973 -0.0005500790385996255
  endloop
endfacet
facet normal -1.0737698007990292e-05 -2.104295479903215e-05 -0.999999999720948
  outer loop
    vertex 32.58049705114762 -41.59907270042973 -0.0005500790385996255
    vertex -112.79585031425735 45.489669247465436 -0.003113211650691936
    vertex -32.581851250791686 41.60053563561518 6.837623809603412e-05
  endloop
endfacet
facet normal -1.0737698007990292e-05 -2.104295479903215e-05 -0.999999999720948
  outer loop
    vertex -32.581851250791686 41.60053563561518 6.837623809603412e-05
    vertex -112.79585031425735 45.489669247465436 -0.003113211650691936
    vertex -32.58185748393197 55.00183088675746 0.0005616554861319858
  endloop
endfacet
facet normal -1.0737698007990292e-05 -2.104295479903215e-05 -0.999999999720948
  outer loop
    vertex -32.58185748393197 55.00183088675746 0.0005616554861319858
    vertex -112.79585031425735 45.489669247465436 -0.003113211650691936
    vertex -55.10601325076099 55.00431501487535 0.0012774996409546445
  endloop
endfacet
facet normal -1.0737698007990292e-05 -2.104295479903215e-05 -0.999999999720948
  outer loop
    vertex 32.58115048358537 -54.999238667912834 -0.0002138898968648434
    vertex 43.51894281201221 55.00431497120377 -0.0018568658467879354
    vertex 43.51894279932907 -55.000047728018366 -0.0007232426406477379
  endloop
endfacet
facet normal -1.0737698007990292e-05 -2.104295479903215e-05 -0.999999999720948
  outer loop
    vertex 43.51894281201221 55.00431497120377 -0.0018568658467879354
    vertex 32.58115048358537 -54.999238667912834 -0.0002138898968648434
    vertex 32.58049705114762 -41.59907270042973 -0.0005500790385996255
  endloop
endfacet
facet normal -1.0737698007990292e-05 -2.104295479903215e-05 -0.999999999720948
  outer loop
    vertex 43.51894281201221 55.00431497120377 -0.0018568658467879354
    vertex 32.58049705114762 -41.59907270042973 -0.0005500790385996255
    vertex 32.577220186533275 41.60070703272326 -0.0020023991000748405
  endloop
endfacet
facet normal -1.0737698007990292e-05 -2.104295479903215e-05 -0.999999999720948
  outer loop
    vertex 32.577220186533275 41.60070703272326 -0.0020023991000748405
    vertex 32.58049705114762 -41.59907270042973 -0.0005500790385996255
    vertex -32.581851250791686 41.60053563561518 6.837623809603412e-05
  endloop
endfacet
facet normal -1.0737698007990292e-05 -2.104295479903215e-05 -0.999999999720948
  outer loop
    vertex 43.51894281201221 55.00431497120377 -0.0018568658467879354
    vertex 32.577220186533275 41.60070703272326 -0.0020023991000748405
    vertex 32.57721395339298 55.00200228386556 -0.001509119852038889
  endloop
endfacet
facet normal 0.999999999979631 -1.8107150700523988e-10 -6.38263851193892e-06
  outer loop
    vertex 43.51914061826702 55.00499105287414 30.989441530940045
    vertex 43.51894279932907 -55.000047728018366 -0.0007232426406477379
    vertex 43.51894281201221 55.00431497120377 -0.0018568658467879354
  endloop
endfacet
facet normal 0.999999999979631 -1.8107150700523988e-10 -6.38263851193892e-06
  outer loop
    vertex 43.51894279932907 -55.000047728018366 -0.0007232426406477379
    vertex 43.51914061826702 55.00499105287414 30.989441530940045
    vertex 43.51914060558387 -54.999371646347996 30.990575154146185
  endloop
endfacet
facet normal -0.999999999979631 3.2526389388237354e-09 6.3826384438401376e-06
  outer loop
    vertex -112.79585058724885 -45.95412205660192 0.0007162564026396928
    vertex -112.79565250800259 45.49034532913581 30.98818518513614
    vertex -112.79585031425735 45.489669247465436 -0.003113211650691936
  endloop
endfacet
facet normal -0.999999999979631 3.2526389388237354e-09 6.3826384438401376e-06
  outer loop
    vertex -112.79565250800259 45.49034532913581 30.98818518513614
    vertex -112.79585058724885 -45.95412205660192 0.0007162564026396928
    vertex -112.7956527809941 -45.95344597493154 30.99201465318947
  endloop
endfacet
facet normal 5.053849365812328e-05 -0.9999999984734744 2.2336341012048865e-05
  outer loop
    vertex 43.51914060558387 -54.999371646347996 30.990575154146185
    vertex 32.58115048358537 -54.999238667912834 -0.0002138898968648434
    vertex 43.51894279932907 -55.000047728018366 -0.0007232426406477379
  endloop
endfacet
facet normal 5.053849365812328e-05 -0.9999999984734744 2.2336341012048865e-05
  outer loop
    vertex 32.58115048358537 -54.999238667912834 -0.0002138898968648434
    vertex 43.51914060558387 -54.999371646347996 30.990575154146185
    vertex 31.878589746332377 -54.998161945249805 3.5324803805012746
  endloop
endfacet
facet normal 5.053849365812328e-05 -0.9999999984734744 2.2336341012048865e-05
  outer loop
    vertex 31.878589746332377 -54.998161945249805 3.5324803805012746
    vertex 43.51914060558387 -54.999371646347996 30.990575154146185
    vertex 30.491213282963752 -54.99818728828767 7.620056485882521
  endloop
endfacet
facet normal 5.053849365812328e-05 -0.9999999984734744 2.2336341012048865e-05
  outer loop
    vertex 30.491213282963752 -54.99818728828767 7.620056485882521
    vertex 43.51914060558387 -54.999371646347996 30.990575154146185
    vertex 28.5821702738257 -54.998240462797284 11.491573844163234
  endloop
endfacet
facet normal 5.053849365812328e-05 -0.9999999984734744 2.2336341012048865e-05
  outer loop
    vertex 28.5821702738257 -54.998240462797284 11.491573844163234
    vertex 43.51914060558387 -54.999371646347996 30.990575154146185
    vertex 26.184124974091286 -54.9983205589481 15.08078971995583
  endloop
endfacet
facet normal 5.053849365812328e-05 -0.9999999984734744 2.2336341012048865e-05
  outer loop
    vertex 26.184124974091286 -54.9983205589481 15.08078971995583
    vertex 43.51914060558387 -54.999371646347996 30.990575154146185
    vertex 23.33810860370275 -54.99842620627274 18.32629163450685
  endloop
endfacet
facet normal 5.053849365812328e-05 -0.9999999984734744 2.2336341012048865e-05
  outer loop
    vertex 23.33810860370275 -54.99842620627274 18.32629163450685
    vertex 43.51914060558387 -54.999371646347996 30.990575154146185
    vertex 20.092817291822225 -54.99855559711619 21.17254815023521
  endloop
endfacet
facet normal 5.053849365812328e-05 -0.9999999984734744 2.2336341012048865e-05
  outer loop
    vertex 20.092817291822225 -54.99855559711619 21.17254815023521
    vertex 43.51914060558387 -54.999371646347996 30.990575154146185
    vertex 16.50377887256074 -54.99870651756525 23.570859029025396
  endloop
endfacet
facet normal 5.053849365812328e-05 -0.9999999984734744 2.2336341012048865e-05
  outer loop
    vertex 16.50377887256074 -54.99870651756525 23.570859029025396
    vertex 43.51914060558387 -54.999371646347996 30.990575154146185
    vertex 12.632402788341311 -54.99887638532919 25.480188506803902
  endloop
endfacet
facet normal 5.053849365812328e-05 -0.9999999984734744 2.2336341012048865e-05
  outer loop
    vertex 12.632402788341311 -54.99887638532919 25.480188506803902
    vertex 43.51914060558387 -54.999371646347996 30.990575154146185
    vertex 8.544929357313135 -54.99906229392348 26.867867426839823
  endloop
endfacet
facet normal 5.053849365812328e-05 -0.9999999984734744 2.2336341012048865e-05
  outer loop
    vertex 8.544929357313135 -54.99906229392348 26.867867426839823
    vertex 43.51914060558387 -54.999371646347996 30.990575154146185
    vertex 4.311296383142858 -54.99926106240051 27.71015221807404
  endloop
endfacet
facet normal 5.053849365812328e-05 -0.9999999984734744 2.2336341012048865e-05
  outer loop
    vertex 4.311296383142858 -54.99926106240051 27.71015221807404
    vertex 43.51914060558387 -54.999371646347996 30.990575154146185
    vertex 0.003942590692952663 -55.00132315904921 27.992631173558188
  endloop
endfacet
facet normal 5.053849365812328e-05 -0.9999999984734744 2.2336341012048865e-05
  outer loop
    vertex 0.003942590692952663 -55.00132315904921 27.992631173558188
    vertex 43.51914060558387 -54.999371646347996 30.990575154146185
    vertex -55.100674048933456 -55.004165210574996 30.99516763992562
  endloop
endfacet
facet normal 5.053849365812328e-05 -0.9999999984734744 2.2336341012048865e-05
  outer loop
    vertex 0.003942590692952663 -55.00132315904921 27.992631173558188
    vertex -55.100674048933456 -55.004165210574996 30.99516763992562
    vertex -4.3034322735374015 -54.99968341322343 27.710470942311833
  endloop
endfacet
facet normal 5.053849365812328e-05 -0.9999999984734744 2.2336341012048865e-05
  outer loop
    vertex -4.3034322735374015 -54.99968341322343 27.710470942311833
    vertex -55.100674048933456 -55.004165210574996 30.99516763992562
    vertex -8.537127560277533 -54.99989976902965 26.868499421855336
  endloop
endfacet
facet normal 5.053849365812328e-05 -0.9999999984734744 2.2336341012048865e-05
  outer loop
    vertex -8.537127560277533 -54.99989976902965 26.868499421855336
    vertex -55.100674048933456 -55.004165210574996 30.99516763992562
    vertex -12.624703660258866 -55.00011465528737 25.4811229589872
  endloop
endfacet
facet normal 5.053849365812328e-05 -0.9999999984734744 2.2336341012048865e-05
  outer loop
    vertex -12.624703660258866 -55.00011465528737 25.4811229589872
    vertex -55.100674048933456 -55.004165210574996 30.99516763992562
    vertex -16.496221013120536 -55.000324395233115 23.572079949640546
  endloop
endfacet
facet normal 5.053849365812328e-05 -0.9999999984734744 2.2336341012048865e-05
  outer loop
    vertex -16.496221013120536 -55.000324395233115 23.572079949640546
    vertex -55.100674048933456 -55.004165210574996 30.99516763992562
    vertex -20.085436883567677 -55.000525400158295 21.174034648991977
  endloop
endfacet
facet normal 5.053849365812328e-05 -0.9999999984734744 2.2336341012048865e-05
  outer loop
    vertex -20.085436883567677 -55.000525400158295 21.174034648991977
    vertex -55.100674048933456 -55.004165210574996 30.99516763992562
    vertex -23.330938792938273 -55.000714230812896 18.328018276999384
  endloop
endfacet
facet normal 5.053849365812328e-05 -0.9999999984734744 2.2336341012048865e-05
  outer loop
    vertex -23.330938792938273 -55.000714230812896 18.328018276999384
    vertex -55.100674048933456 -55.004165210574996 30.99516763992562
    vertex -26.177195303739968 -55.000887656252075 15.082726962852336
  endloop
endfacet
facet normal 5.053849365812328e-05 -0.9999999984734744 2.2336341012048865e-05
  outer loop
    vertex -26.177195303739968 -55.000887656252075 15.082726962852336
    vertex -55.100674048933456 -55.004165210574996 30.99516763992562
    vertex -28.57550617794141 -55.00104270911848 11.493688540700674
  endloop
endfacet
facet normal 5.053849365812328e-05 -0.9999999984734744 2.2336341012048865e-05
  outer loop
    vertex -28.57550617794141 -55.00104270911848 11.493688540700674
    vertex -55.100674048933456 -55.004165210574996 30.99516763992562
    vertex -30.484835651547698 -55.00117673641456 7.622312453016832
  endloop
endfacet
facet normal 5.053849365812328e-05 -0.9999999984734744 2.2336341012048865e-05
  outer loop
    vertex -30.484835651547698 -55.00117673641456 7.622312453016832
    vertex -55.100674048933456 -55.004165210574996 30.99516763992562
    vertex -31.87251456789928 -55.00128744489614 3.534839018009314
  endloop
endfacet
facet normal 5.053849365812328e-05 -0.9999999984734744 2.2336341012048865e-05
  outer loop
    vertex -31.87251456789928 -55.00128744489614 3.534839018009314
    vertex -55.100674048933456 -55.004165210574996 30.99516763992562
    vertex -32.57521255445172 -55.00233593539187 0.0028202910423132657
  endloop
endfacet
facet normal 5.053849365812328e-05 -0.9999999984734744 2.2336341012048865e-05
  outer loop
    vertex -32.57521255445172 -55.00233593539187 0.0028202910423132657
    vertex -55.100674048933456 -55.004165210574996 30.99516763992562
    vertex -55.10087185518827 -55.004841292245366 0.003869243138786098
  endloop
endfacet
facet normal -0.15497656871149926 -0.9879181457197365 2.2540800835204067e-05
  outer loop
    vertex -55.100674048933456 -55.004165210574996 30.99516763992562
    vertex -112.79585058724885 -45.95412205660192 0.0007162564026396928
    vertex -55.10087185518827 -55.004841292245366 0.003869243138786098
  endloop
endfacet
facet normal -0.15497656871149926 -0.9879181457197365 2.2540800835204067e-05
  outer loop
    vertex -112.79585058724885 -45.95412205660192 0.0007162564026396928
    vertex -55.100674048933456 -55.004165210574996 30.99516763992562
    vertex -112.7956527809941 -45.95344597493154 30.99201465318947
  endloop
endfacet
facet normal -0.1627292292917235 0.9866707644976892 -2.0485787689841925e-05
  outer loop
    vertex -112.79585031425735 45.489669247465436 -0.003113211650691936
    vertex -55.10581544450621 55.00499109654572 30.992575896427788
    vertex -55.10601325076099 55.00431501487535 0.0012774996409546445
  endloop
endfacet
facet normal -0.1627292292917235 0.9866707644976892 -2.0485787689841925e-05
  outer loop
    vertex -55.10581544450621 55.00499109654572 30.992575896427788
    vertex -112.79585031425735 45.489669247465436 -0.003113211650691936
    vertex -112.79565250800259 45.49034532913581 30.98818518513614
  endloop
endfacet
facet normal 0.9807780656813133 7.638457518753156e-06 -0.1951265892185777
  outer loop
    vertex -32.58185748393197 55.00183088675746 0.0005616554861319858
    vertex -31.877702940917647 41.59897865328754 3.5393769255434187
    vertex -32.581851250791686 41.60053563561518 6.837623809603412e-05
  endloop
endfacet
facet normal 0.9807780656813133 7.638457518753156e-06 -0.1951265892185777
  outer loop
    vertex -31.877702940917647 41.59897865328754 3.5393769255434187
    vertex -32.58185748393197 55.00183088675746 0.0005616554861319858
    vertex -31.877709174057927 55.00027390442983 3.5398702047914554
  endloop
endfacet
facet normal 0.44225550537251485 3.321868637343347e-05 -0.8968891051095561
  outer loop
    vertex -16.501415545494837 55.0004803915699 23.577111102126242
    vertex -12.629891949552334 41.59920481315958 25.485660823561005
    vertex -16.501409312354557 41.5991851404276 23.57661782287821
  endloop
endfacet
facet normal 0.44225550537251485 3.321868637343347e-05 -0.8968891051095561
  outer loop
    vertex -12.629891949552334 41.59920481315958 25.485660823561005
    vertex -16.501415545494837 55.0004803915699 23.577111102126242
    vertex -12.629898182692626 55.00050006430188 25.48615410280905
  endloop
endfacet
facet normal 0.8968563761068166 1.6698269002102415e-05 -0.4423218741569496
  outer loop
    vertex -30.49003024477022 55.000316026733195 7.627343636724528
    vertex -28.580694525051783 41.59906067089544 11.498226440914209
    vertex -30.490024011629952 41.5990207755909 7.626850357476492
  endloop
endfacet
facet normal 0.8968563761068166 1.6698269002102415e-05 -0.4423218741569496
  outer loop
    vertex -28.580694525051783 41.59906067089544 11.498226440914209
    vertex -30.49003024477022 55.000316026733195 7.627343636724528
    vertex -28.580700758192073 55.000355922037755 11.498719720162244
  endloop
endfacet
facet normal 0.9469182355241658 1.2273363988606812e-05 -0.3214745014478835
  outer loop
    vertex -31.877709174057927 55.00027390442983 3.5398702047914554
    vertex -30.490024011629952 41.5990207755909 7.626850357476492
    vertex -31.877702940917647 41.59897865328754 3.5393769255434187
  endloop
endfacet
facet normal 0.9469182355241658 1.2273363988606812e-05 -0.3214745014478835
  outer loop
    vertex -30.490024011629952 41.5990207755909 7.626850357476492
    vertex -31.877709174057927 55.00027390442983 3.5398702047914554
    vertex -30.49003024477022 55.000316026733195 7.627343636724528
  endloop
endfacet
facet normal -0.9807925037078186 6.723430357885851e-06 -0.19505400438172116
  outer loop
    vertex 31.873401450415745 41.5989786216294 3.5370181450842786
    vertex 32.57721395339298 55.00200228386556 -0.001509119852038889
    vertex 32.577220186533275 41.60070703272326 -0.0020023991000748405
  endloop
endfacet
facet normal -0.9807925037078186 6.723430357885851e-06 -0.19505400438172116
  outer loop
    vertex 32.57721395339298 55.00200228386556 -0.001509119852038889
    vertex 31.873401450415745 41.5989786216294 3.5370181450842786
    vertex 31.87339521727544 55.00027387277169 3.5375114243323154
  endloop
endfacet
facet normal 0.7518154109058142 2.462012024844648e-05 -0.659373632562276
  outer loop
    vertex -26.18238987120488 55.00039290772377 15.087758136968759
    vertex -23.336127114882196 41.59913109981359 18.33255616551503
    vertex -26.1823836380646 41.599097656581456 15.087264857720726
  endloop
endfacet
facet normal 0.7518154109058142 2.462012024844648e-05 -0.659373632562276
  outer loop
    vertex -23.336127114882196 41.59913109981359 18.33255616551503
    vertex -26.18238987120488 55.00039290772377 15.087758136968759
    vertex -23.336133348022475 55.0004263509559 18.333049444763066
  endloop
endfacet
facet normal 0.8314490554321272 2.083746200198139e-05 -0.5556009969274925
  outer loop
    vertex -28.580700758192073 55.000355922037755 11.498719720162244
    vertex -26.1823836380646 41.599097656581456 15.087264857720726
    vertex -28.580694525051783 41.59906067089544 11.498226440914209
  endloop
endfacet
facet normal 0.8314490554321272 2.083746200198139e-05 -0.5556009969274925
  outer loop
    vertex -26.1823836380646 41.599097656581456 15.087264857720726
    vertex -28.580700758192073 55.000355922037755 11.498719720162244
    vertex -26.18238987120488 55.00039290772377 15.087758136968759
  endloop
endfacet
facet normal 0.6593179962777387 2.7981521410336553e-05 -0.7518642025002535
  outer loop
    vertex -23.336133348022475 55.0004263509559 18.333049444763066
    vertex -20.09062519374759 41.599160428368876 21.178572530256037
    vertex -23.336127114882196 41.59913109981359 18.33255616551503
  endloop
endfacet
facet normal 0.6593179962777387 2.7981521410336553e-05 -0.7518642025002535
  outer loop
    vertex -20.09062519374759 41.599160428368876 21.178572530256037
    vertex -23.336133348022475 55.0004263509559 18.333049444763066
    vertex -20.09063142688788 55.00045567951119 21.179065809504074
  endloop
endfacet
facet normal 0.5555394679674502 3.086415098223261e-05 -0.8314901674571064
  outer loop
    vertex -20.09063142688788 55.00045567951119 21.179065809504074
    vertex -16.501409312354557 41.5991851404276 23.57661782287821
    vertex -20.09062519374759 41.599160428368876 21.178572530256037
  endloop
endfacet
facet normal 0.5555394679674502 3.086415098223261e-05 -0.8314901674571064
  outer loop
    vertex -16.501409312354557 41.5991851404276 23.57661782287821
    vertex -20.09063142688788 55.00045567951119 21.179065809504074
    vertex -16.501415545494837 55.0004803915699 23.577111102126242
  endloop
endfacet
facet normal -0.831490167464905 2.0061739655970556e-05 -0.5555394684509022
  outer loop
    vertex 26.178936703093356 41.59909763057937 15.08532749741277
    vertex 28.576975762702546 55.00035589365384 11.496604895458347
    vertex 28.57698199584284 41.59906064251154 11.496111616210312
  endloop
endfacet
facet normal -0.831490167464905 2.0061739655970556e-05 -0.5555394684509022
  outer loop
    vertex 28.576975762702546 55.00035589365384 11.496604895458347
    vertex 26.178936703093356 41.59909763057937 15.08532749741277
    vertex 26.178930469953052 55.00039288172167 15.085820776660803
  endloop
endfacet
facet normal 0.1950540327782301 3.619205275809296e-05 -0.9807924974157809
  outer loop
    vertex -8.54232207394617 55.00051436110122 26.873530556524116
    vertex -4.308620546626035 41.599227786203436 27.715008788246895
    vertex -8.542315840805903 41.59921910995892 26.87303727727608
  endloop
endfacet
facet normal 0.1950540327782301 3.619205275809296e-05 -0.9807924974157809
  outer loop
    vertex -4.308620546626035 41.599227786203436 27.715008788246895
    vertex -8.54232207394617 55.00051436110122 26.873530556524116
    vertex -4.308626779766349 55.000523037345715 27.71550206749493
  endloop
endfacet
facet normal -0.32147450102560493 3.470495281081416e-05 -0.9469182351110916
  outer loop
    vertex 8.539734864303837 55.00051435261846 26.872898523204963
    vertex 12.627214529594253 41.59920480061716 25.48472631474291
    vertex 8.539741097444145 41.599219101476145 26.872405243956926
  endloop
endfacet
facet normal -0.32147450102560493 3.470495281081416e-05 -0.9469182351110916
  outer loop
    vertex 12.627214529594253 41.59920480061716 25.48472631474291
    vertex 8.539734864303837 55.00051435261846 26.872898523204963
    vertex 12.627208296453945 55.00050005175948 25.485219593990948
  endloop
endfacet
facet normal -0.442321873670285 3.2806051665901725e-05 -0.8968563759022798
  outer loop
    vertex 12.627208296453945 55.00050005175948 25.485219593990948
    vertex 16.49859061323753 41.59918512404014 23.575396828266125
    vertex 12.627214529594253 41.59920480061716 25.48472631474291
  endloop
endfacet
facet normal -0.442321873670285 3.2806051665901725e-05 -0.8968563759022798
  outer loop
    vertex 16.49859061323753 41.59918512404014 23.575396828266125
    vertex 12.627208296453945 55.00050005175948 25.485219593990948
    vertex 16.49858438009722 55.00048037518245 23.57589010751416
  endloop
endfacet
facet normal -0.5556009964585916 3.0345829881941743e-05 -0.8314490554527985
  outer loop
    vertex 16.49858438009722 55.00048037518245 23.57589010751416
    vertex 20.08762903023459 41.59916040841678 21.177085941406315
    vertex 16.49859061323753 41.59918512404014 23.575396828266125
  endloop
endfacet
facet normal -0.5556009964585916 3.0345829881941743e-05 -0.8314490554527985
  outer loop
    vertex 20.08762903023459 41.59916040841678 21.177085941406315
    vertex 16.49858438009722 55.00048037518245 23.57589010751416
    vertex 20.087622797094294 55.00045565955907 21.177579220654348
  endloop
endfacet
facet normal 0.06536622860723323 3.6760008589726383e-05 -0.9978613404708937
  outer loop
    vertex -4.308620546626035 41.599227786203436 27.715008788246895
    vertex -0.00125200043888527 54.99867659419908 27.997662288788217
    vertex -0.0012457672985717759 41.59738134305681 27.99716900954018
  endloop
endfacet
facet normal 0.06536622860723323 3.6760008589726383e-05 -0.9978613404708937
  outer loop
    vertex -0.00125200043888527 54.99867659419908 27.997662288788217
    vertex -4.308620546626035 41.599227786203436 27.715008788246895
    vertex -4.308626779766349 55.000523037345715 27.71550206749493
  endloop
endfacet
facet normal 0.3214044285008937 3.5004840831138134e-05 -0.9469420215169856
  outer loop
    vertex -12.629898182692626 55.00050006430188 25.48615410280905
    vertex -8.542315840805903 41.59921910995892 26.87303727727608
    vertex -12.629891949552334 41.59920481315958 25.485660823561005
  endloop
endfacet
facet normal 0.3214044285008937 3.5004840831138134e-05 -0.9469420215169856
  outer loop
    vertex -8.542315840805903 41.59921910995892 26.87303727727608
    vertex -12.629898182692626 55.00050006430188 25.48615410280905
    vertex -8.54232207394617 55.00051436110122 26.873530556524116
  endloop
endfacet
facet normal -0.19512661057038996 3.601004259183755e-05 -0.980778060802029
  outer loop
    vertex 4.306101887332712 55.00052303306776 27.715183323940053
    vertex 8.539741097444145 41.599219101476145 26.872405243956926
    vertex 4.30610812047302 41.59922778192544 27.714690044692023
  endloop
endfacet
facet normal -0.19512661057038996 3.601004259183755e-05 -0.980778060802029
  outer loop
    vertex 8.539741097444145 41.599219101476145 26.872405243956926
    vertex 4.306101887332712 55.00052303306776 27.715183323940053
    vertex 8.539734864303837 55.00051435261846 26.872898523204963
  endloop
endfacet
facet normal -0.6593736321924154 2.736638253504877e-05 -0.7518154111352484
  outer loop
    vertex 20.087622797094294 55.00045565955907 21.177579220654348
    vertex 23.332920338201212 41.59913107663823 18.330829418375046
    vertex 20.08762903023459 41.59916040841678 21.177085941406315
  endloop
endfacet
facet normal -0.6593736321924154 2.736638253504877e-05 -0.7518154111352484
  outer loop
    vertex 23.332920338201212 41.59913107663823 18.330829418375046
    vertex 20.087622797094294 55.00045565955907 21.177579220654348
    vertex 23.332914105060915 55.00042632778053 18.331322697623083
  endloop
endfacet
facet normal -0.7518642022972782 2.3918688794412173e-05 -0.6593179966691141
  outer loop
    vertex 23.332920338201212 41.59913107663823 18.330829418375046
    vertex 26.178930469953052 55.00039288172167 15.085820776660803
    vertex 26.178936703093356 41.59909763057937 15.08532749741277
  endloop
endfacet
facet normal -0.7518642022972782 2.3918688794412173e-05 -0.6593179966691141
  outer loop
    vertex 26.178930469953052 55.00039288172167 15.085820776660803
    vertex 23.332920338201212 41.59913107663823 18.330829418375046
    vertex 23.332914105060915 55.00042632778053 18.331322697623083
  endloop
endfacet
facet normal -0.06544006981571833 3.6698990503538754e-05 -0.9978565006631455
  outer loop
    vertex -0.00125200043888527 54.99867659419908 27.997662288788217
    vertex 4.30610812047302 41.59922778192544 27.714690044692023
    vertex -0.0012457672985717759 41.59738134305681 27.99716900954018
  endloop
endfacet
facet normal -0.06544006981571833 3.6698990503538754e-05 -0.9978565006631455
  outer loop
    vertex 4.30610812047302 41.59922778192544 27.714690044692023
    vertex -0.00125200043888527 54.99867659419908 27.997662288788217
    vertex 4.306101887332712 55.00052303306776 27.715183323940053
  endloop
endfacet
facet normal -4.651688408466461e-07 0.9999999993789417 3.524060457475042e-05
  outer loop
    vertex -32.581851250791686 41.60053563561518 6.837623809603412e-05
    vertex 31.873401450415745 41.5989786216294 3.5370181450842786
    vertex 32.577220186533275 41.60070703272326 -0.0020023991000748405
  endloop
endfacet
facet normal -4.651688408466461e-07 0.9999999993789417 3.524060457475042e-05
  outer loop
    vertex 31.873401450415745 41.5989786216294 3.5370181450842786
    vertex -32.581851250791686 41.60053563561518 6.837623809603412e-05
    vertex 30.486024996627023 41.599020745310824 7.624594253613672
  endloop
endfacet
facet normal -4.651688408466461e-07 0.9999999993789417 3.524060457475042e-05
  outer loop
    vertex 30.486024996627023 41.599020745310824 7.624594253613672
    vertex -32.581851250791686 41.60053563561518 6.837623809603412e-05
    vertex 28.57698199584284 41.59906064251154 11.496111616210312
  endloop
endfacet
facet normal -4.651688408466461e-07 0.9999999993789417 3.524060457475042e-05
  outer loop
    vertex 28.57698199584284 41.59906064251154 11.496111616210312
    vertex -32.581851250791686 41.60053563561518 6.837623809603412e-05
    vertex 26.178936703093356 41.59909763057937 15.08532749741277
  endloop
endfacet
facet normal -4.651688408466461e-07 0.9999999993789417 3.524060457475042e-05
  outer loop
    vertex 26.178936703093356 41.59909763057937 15.08532749741277
    vertex -32.581851250791686 41.60053563561518 6.837623809603412e-05
    vertex 23.332920338201212 41.59913107663823 18.330829418375046
  endloop
endfacet
facet normal -4.651688408466461e-07 0.9999999993789417 3.524060457475042e-05
  outer loop
    vertex 23.332920338201212 41.59913107663823 18.330829418375046
    vertex -32.581851250791686 41.60053563561518 6.837623809603412e-05
    vertex 20.08762903023459 41.59916040841678 21.177085941406315
  endloop
endfacet
facet normal -4.651688408466461e-07 0.9999999993789417 3.524060457475042e-05
  outer loop
    vertex 20.08762903023459 41.59916040841678 21.177085941406315
    vertex -32.581851250791686 41.60053563561518 6.837623809603412e-05
    vertex 16.49859061323753 41.59918512404014 23.575396828266125
  endloop
endfacet
facet normal -4.651688408466461e-07 0.9999999993789417 3.524060457475042e-05
  outer loop
    vertex 16.49859061323753 41.59918512404014 23.575396828266125
    vertex -32.581851250791686 41.60053563561518 6.837623809603412e-05
    vertex 12.627214529594253 41.59920480061716 25.48472631474291
  endloop
endfacet
facet normal -4.651688408466461e-07 0.9999999993789417 3.524060457475042e-05
  outer loop
    vertex 12.627214529594253 41.59920480061716 25.48472631474291
    vertex -32.581851250791686 41.60053563561518 6.837623809603412e-05
    vertex 8.539741097444145 41.599219101476145 26.872405243956926
  endloop
endfacet
facet normal -4.651688408466461e-07 0.9999999993789417 3.524060457475042e-05
  outer loop
    vertex 8.539741097444145 41.599219101476145 26.872405243956926
    vertex -32.581851250791686 41.60053563561518 6.837623809603412e-05
    vertex 4.30610812047302 41.59922778192544 27.714690044692023
  endloop
endfacet
facet normal -4.651688408466461e-07 0.9999999993789417 3.524060457475042e-05
  outer loop
    vertex 4.30610812047302 41.59922778192544 27.714690044692023
    vertex -32.581851250791686 41.60053563561518 6.837623809603412e-05
    vertex -0.0012457672985717759 41.59738134305681 27.99716900954018
  endloop
endfacet
facet normal -4.651688408466461e-07 0.9999999993789417 3.524060457475042e-05
  outer loop
    vertex -0.0012457672985717759 41.59738134305681 27.99716900954018
    vertex -32.581851250791686 41.60053563561518 6.837623809603412e-05
    vertex -4.308620546626035 41.599227786203436 27.715008788246895
  endloop
endfacet
facet normal -4.651688408466461e-07 0.9999999993789417 3.524060457475042e-05
  outer loop
    vertex -4.308620546626035 41.599227786203436 27.715008788246895
    vertex -32.581851250791686 41.60053563561518 6.837623809603412e-05
    vertex -8.542315840805903 41.59921910995892 26.87303727727608
  endloop
endfacet
facet normal -4.651688408466461e-07 0.9999999993789417 3.524060457475042e-05
  outer loop
    vertex -8.542315840805903 41.59921910995892 26.87303727727608
    vertex -32.581851250791686 41.60053563561518 6.837623809603412e-05
    vertex -12.629891949552334 41.59920481315958 25.485660823561005
  endloop
endfacet
facet normal -4.651688408466461e-07 0.9999999993789417 3.524060457475042e-05
  outer loop
    vertex -12.629891949552334 41.59920481315958 25.485660823561005
    vertex -32.581851250791686 41.60053563561518 6.837623809603412e-05
    vertex -16.501409312354557 41.5991851404276 23.57661782287821
  endloop
endfacet
facet normal -4.651688408466461e-07 0.9999999993789417 3.524060457475042e-05
  outer loop
    vertex -16.501409312354557 41.5991851404276 23.57661782287821
    vertex -32.581851250791686 41.60053563561518 6.837623809603412e-05
    vertex -20.09062519374759 41.599160428368876 21.178572530256037
  endloop
endfacet
facet normal -4.651688408466461e-07 0.9999999993789417 3.524060457475042e-05
  outer loop
    vertex -20.09062519374759 41.599160428368876 21.178572530256037
    vertex -32.581851250791686 41.60053563561518 6.837623809603412e-05
    vertex -23.336127114882196 41.59913109981359 18.33255616551503
  endloop
endfacet
facet normal -4.651688408466461e-07 0.9999999993789417 3.524060457475042e-05
  outer loop
    vertex -23.336127114882196 41.59913109981359 18.33255616551503
    vertex -32.581851250791686 41.60053563561518 6.837623809603412e-05
    vertex -26.1823836380646 41.599097656581456 15.087264857720726
  endloop
endfacet
facet normal -4.651688408466461e-07 0.9999999993789417 3.524060457475042e-05
  outer loop
    vertex -26.1823836380646 41.599097656581456 15.087264857720726
    vertex -32.581851250791686 41.60053563561518 6.837623809603412e-05
    vertex -28.580694525051783 41.59906067089544 11.498226440914209
  endloop
endfacet
facet normal -4.651688408466461e-07 0.9999999993789417 3.524060457475042e-05
  outer loop
    vertex -28.580694525051783 41.59906067089544 11.498226440914209
    vertex -32.581851250791686 41.60053563561518 6.837623809603412e-05
    vertex -30.490024011629952 41.5990207755909 7.626850357476492
  endloop
endfacet
facet normal -4.651688408466461e-07 0.9999999993789417 3.524060457475042e-05
  outer loop
    vertex -30.490024011629952 41.5990207755909 7.626850357476492
    vertex -32.581851250791686 41.60053563561518 6.837623809603412e-05
    vertex -31.877702940917647 41.59897865328754 3.5393769255434187
  endloop
endfacet
facet normal 0.980778062109341 4.2930270892256025e-05 -0.195126602599537
  outer loop
    vertex -31.873168000337074 -41.601121477413024 3.5345028288675797
    vertex -32.57521255445172 -55.00233593539187 0.0028202910423132657
    vertex -32.57586598688949 -41.60216996790876 0.0024841019005784866
  endloop
endfacet
facet normal 0.980778062109341 4.2930270892256025e-05 -0.195126602599537
  outer loop
    vertex -32.57521255445172 -55.00233593539187 0.0028202910423132657
    vertex -31.873168000337074 -41.601121477413024 3.5345028288675797
    vertex -31.87251456789928 -55.00128744489614 3.534839018009314
  endloop
endfacet
facet normal -0.44232187038376275 -4.4069665638738235e-05 -0.8968563770404235
  outer loop
    vertex 12.631749355903553 -41.59871041784608 25.47985231766217
    vertex 16.50377887256074 -54.99870651756525 23.570859029025396
    vertex 12.632402788341311 -54.99887638532919 25.480188506803902
  endloop
endfacet
facet normal -0.44232187038376275 -4.4069665638738235e-05 -0.8968563770404235
  outer loop
    vertex 16.50377887256074 -54.99870651756525 23.570859029025396
    vertex 12.631749355903553 -41.59871041784608 25.47985231766217
    vertex 16.50312544012299 -41.59854055008214 23.570522839883655
  endloop
endfacet
facet normal -0.7518641994350035 -5.320441630238822e-05 -0.6593179982203212
  outer loop
    vertex 26.184124974091286 -54.9983205589481 15.08078971995583
    vertex 23.33745517126499 -41.59826023878962 18.32595544536511
    vertex 26.183471541653528 -41.59815459146499 15.08045353081409
  endloop
endfacet
facet normal -0.7518641994350035 -5.320441630238822e-05 -0.6593179982203212
  outer loop
    vertex 23.33745517126499 -41.59826023878962 18.32595544536511
    vertex 26.184124974091286 -54.9983205589481 15.08078971995583
    vertex 23.33810860370275 -54.99842620627274 18.32629163450685
  endloop
endfacet
facet normal -0.8968891029087113 -5.483050987963431e-05 -0.44225550768444066
  outer loop
    vertex 30.491213282963752 -54.99818728828767 7.620056485882521
    vertex 28.58151684138794 -41.59807449531419 11.491237655021498
    vertex 30.490559850526 -41.59802132080455 7.619720296740785
  endloop
endfacet
facet normal -0.8968891029087113 -5.483050987963431e-05 -0.44225550768444066
  outer loop
    vertex 28.58151684138794 -41.59807449531419 11.491237655021498
    vertex 30.491213282963752 -54.99818728828767 7.620056485882521
    vertex 28.5821702738257 -54.998240462797284 11.491573844163234
  endloop
endfacet
facet normal -0.9469420198034554 -5.423927688215586e-05 -0.32140443087899895
  outer loop
    vertex 31.878589746332377 -54.998161945249805 3.5324803805012746
    vertex 30.490559850526 -41.59802132080455 7.619720296740785
    vertex 31.87793631389463 -41.597995977766686 3.5321441913595404
  endloop
endfacet
facet normal -0.9469420198034554 -5.423927688215586e-05 -0.32140443087899895
  outer loop
    vertex 30.490559850526 -41.59802132080455 7.619720296740785
    vertex 31.878589746332377 -54.998161945249805 3.5324803805012746
    vertex 30.491213282963752 -54.99818728828767 7.620056485882521
  endloop
endfacet
facet normal -0.8314901647977256 -5.4483577650811455e-05 -0.555539470133483
  outer loop
    vertex 28.5821702738257 -54.998240462797284 11.491573844163234
    vertex 26.183471541653528 -41.59815459146499 15.08045353081409
    vertex 28.58151684138794 -41.59807449531419 11.491237655021498
  endloop
endfacet
facet normal -0.8314901647977256 -5.4483577650811455e-05 -0.555539470133483
  outer loop
    vertex 26.183471541653528 -41.59815459146499 15.08045353081409
    vertex 28.5821702738257 -54.998240462797284 11.491573844163234
    vertex 26.184124974091286 -54.9983205589481 15.08078971995583
  endloop
endfacet
facet normal -0.5556009932914306 -4.795252967836857e-05 -0.8314490567401772
  outer loop
    vertex 16.50312544012299 -41.59854055008214 23.570522839883655
    vertex 20.092817291822225 -54.99855559711619 21.17254815023521
    vertex 16.50377887256074 -54.99870651756525 23.570859029025396
  endloop
endfacet
facet normal -0.5556009932914306 -4.795252967836857e-05 -0.8314490567401772
  outer loop
    vertex 20.092817291822225 -54.99855559711619 21.17254815023521
    vertex 16.50312544012299 -41.59854055008214 23.570522839883655
    vertex 20.092163859384467 -41.59838962963308 21.172211961093474
  endloop
endfacet
facet normal -0.6593736291657144 -5.101491263995763e-05 -0.7518154125570411
  outer loop
    vertex 20.092163859384467 -41.59838962963308 21.172211961093474
    vertex 23.33810860370275 -54.99842620627274 18.32629163450685
    vertex 20.092817291822225 -54.99855559711619 21.17254815023521
  endloop
endfacet
facet normal -0.6593736291657144 -5.101491263995763e-05 -0.7518154125570411
  outer loop
    vertex 23.33810860370275 -54.99842620627274 18.32629163450685
    vertex 20.092163859384467 -41.59838962963308 21.172211961093474
    vertex 23.33745517126499 -41.59826023878962 18.32595544536511
  endloop
endfacet
facet normal -0.3214744976426157 -3.943275740178874e-05 -0.9469182360745229
  outer loop
    vertex 8.544275924875377 -41.59889632644036 26.867531237698092
    vertex 12.632402788341311 -54.99887638532919 25.480188506803902
    vertex 8.544929357313135 -54.99906229392348 26.867867426839823
  endloop
endfacet
facet normal -0.3214744976426157 -3.943275740178874e-05 -0.9469182360745229
  outer loop
    vertex 12.632402788341311 -54.99887638532919 25.480188506803902
    vertex 8.544275924875377 -41.59889632644036 26.867531237698092
    vertex 12.631749355903553 -41.59871041784608 25.47985231766217
  endloop
endfacet
facet normal -0.19512660712032068 -3.4121143753553875e-05 -0.9807780615559566
  outer loop
    vertex 4.3106429507051 -41.599095094917395 27.709816028932316
    vertex 8.544929357313135 -54.99906229392348 26.867867426839823
    vertex 4.311296383142858 -54.99926106240051 27.71015221807404
  endloop
endfacet
facet normal -0.19512660712032068 -3.4121143753553875e-05 -0.9807780615559566
  outer loop
    vertex 8.544929357313135 -54.99906229392348 26.867867426839823
    vertex 4.3106429507051 -41.599095094917395 27.709816028932316
    vertex 8.544275924875377 -41.59889632644036 26.867531237698092
  endloop
endfacet
facet normal -0.9807924978162057 -5.27199946938517e-05 -0.19505402699777882
  outer loop
    vertex 32.58115048358537 -54.999238667912834 -0.0002138898968648434
    vertex 31.87793631389463 -41.597995977766686 3.5321441913595404
    vertex 32.58049705114762 -41.59907270042973 -0.0005500790385996255
  endloop
endfacet
facet normal -0.9807924978162057 -5.27199946938517e-05 -0.19505402699777882
  outer loop
    vertex 31.87793631389463 -41.597995977766686 3.5321441913595404
    vertex 32.58115048358537 -54.999238667912834 -0.0002138898968648434
    vertex 31.878589746332377 -54.998161945249805 3.5324803805012746
  endloop
endfacet
endsolid duckiemod
